{
    "KPlugin": {
        "Authors": [
            {
                "Email": "mgraesslin@kde.org",
                "Name": "Martin Gräßlin",
                "Name[ar]": "Martin Gräßlin",
                "Name[az]": "Martin Gräßlin",
                "Name[ca@valencia]": "Martin Gräßlin",
                "Name[ca]": "Martin Gräßlin",
                "Name[cs]": "Martin Gräßlin",
                "Name[da]": "Martin Gräßlin",
                "Name[de]": "Martin Gräßlin",
                "Name[en_GB]": "Martin Gräßlin",
                "Name[es]": "Martin Gräßlin",
                "Name[eu]": "Martin Gräßlin",
                "Name[fi]": "Martin Gräßlin",
                "Name[fr]": "Martin Gräßlin",
                "Name[hu]": "Martin Gräßlin",
                "Name[ia]": "Martin Gräßlin",
                "Name[id]": "Martin Gräßlin",
                "Name[it]": "Martin Gräßlin",
                "Name[ka]": "მარტინ გრესსლინი",
                "Name[ko]": "Martin Gräßlin",
                "Name[lt]": "Martin Gräßlin",
                "Name[nl]": "Martin Gräßlin",
                "Name[nn]": "Martin Gräßlin",
                "Name[pl]": "Martin Gräßlin",
                "Name[pt]": "Martin Gräßlin",
                "Name[pt_BR]": "Martin Gräßlin",
                "Name[ro]": "Martin Gräßlin",
                "Name[ru]": "Martin Gräßlin",
                "Name[sk]": "Martin Gräßlin",
                "Name[sl]": "Martin Gräßlin",
                "Name[sv]": "Martin Gräßlin",
                "Name[ta]": "மார்ட்டின் கிராஸ்லின்",
                "Name[tr]": "Martin Gräßlin",
                "Name[uk]": "Martin Gräßlin",
                "Name[vi]": "Martin Gräßlin",
                "Name[x-test]": "xxMartin Gräßlinxx",
                "Name[zh_CN]": "Martin Gräßlin"
            }
        ],
        "Category": "Clipboard",
        "Description": "Clipboard Tool.",
        "Description[ar]": "أداة الحافظة",
        "Description[az]": "Mübadilə buferi aləti.",
        "Description[ca@valencia]": "Eina de porta-retalls.",
        "Description[ca]": "Eina de porta-retalls.",
        "Description[cs]": "Program pro práci se schránkou.",
        "Description[da]": "Udklipsholderværktøj.",
        "Description[de]": "Verwaltung der Zwischenablage.",
        "Description[en_GB]": "Clipboard Tool.",
        "Description[es]": "Herramienta del portapapeles.",
        "Description[eu]": "Arbelako tresna.",
        "Description[fi]": "Leikepöytätyökalu.",
        "Description[fr]": "Outil de presse-papier.",
        "Description[hu]": "Vágólapkezelő.",
        "Description[ia]": "Instrumento de  Area de transferentia",
        "Description[id]": "Alat Clipboard.",
        "Description[it]": "Strumento per gli appunti.",
        "Description[ko]": "클립보드 도구.",
        "Description[lt]": "Iškarpinės įrankis.",
        "Description[nl]": "Klembordbeheer.",
        "Description[nn]": "Utklippstavleverktøy.",
        "Description[pa]": "ਕਲਿੱਪਬੋਰਡ ਟੂਲ।",
        "Description[pl]": "Narzędzie schowka.",
        "Description[pt]": "Ferramenta da Área de Transferência.",
        "Description[pt_BR]": "Ferramenta da área de transferência.",
        "Description[ro]": "Utilitar de clipboard.",
        "Description[ru]": "Монитор буфера обмена",
        "Description[sk]": "Nástroj pre schránku.",
        "Description[sl]": "Orodje za odložišče.",
        "Description[sv]": "Klippbordsverktyg.",
        "Description[ta]": "பிடிப்புப்பலகை நிரல்.",
        "Description[tr]": "Pano Aracı.",
        "Description[uk]": "Утиліта буфера даних.",
        "Description[vi]": "Công cụ bảng nháp.",
        "Description[x-test]": "xxClipboard Tool.xx",
        "Description[zh_CN]": "剪贴板工具。",
        "EnabledByDefault": true,
        "Icon": "klipper",
        "Id": "org.kde.plasma.clipboard",
        "License": "GPL-2.0+",
        "Name": "Clipboard",
        "Name[ar]": "الحافظة",
        "Name[ast]": "Cartafueyu",
        "Name[az]": "Mübadilə buferi",
        "Name[bs]": "Klipbord",
        "Name[ca@valencia]": "Porta-retalls",
        "Name[ca]": "Porta-retalls",
        "Name[cs]": "Schránka",
        "Name[da]": "Udklipsholder",
        "Name[de]": "Zwischenablage",
        "Name[el]": "Πρόχειρο",
        "Name[en_GB]": "Clipboard",
        "Name[es]": "Portapapeles",
        "Name[et]": "Lõikepuhver",
        "Name[eu]": "Arbela",
        "Name[fi]": "Leikepöytä",
        "Name[fr]": "Presse-papiers",
        "Name[gl]": "Portapapeis",
        "Name[he]": "לוח העתקה",
        "Name[hi]": "क्लिपबोर्ड",
        "Name[hsb]": "Zapisnik (Clipboard)",
        "Name[hu]": "Vágólap",
        "Name[ia]": "Area de transferentia",
        "Name[id]": "Clipboard",
        "Name[is]": "Klippispjald",
        "Name[it]": "Appunti",
        "Name[ja]": "クリップボード",
        "Name[ka]": "გაცვლის ბაფერი",
        "Name[ko]": "클립보드",
        "Name[lt]": "Iškarpinė",
        "Name[lv]": "Starpliktuve",
        "Name[ml]": "ക്ലിപ്ബോര്‍ഡ്",
        "Name[nb]": "Utklippstavle",
        "Name[nds]": "Twischenaflaag",
        "Name[nl]": "Klembord",
        "Name[nn]": "Utklippstavle",
        "Name[pa]": "ਕਲਿੱਪਬੋਰਡ",
        "Name[pl]": "Schowek",
        "Name[pt]": "Área de Transferência",
        "Name[pt_BR]": "Área de transferência",
        "Name[ro]": "Clipboard",
        "Name[ru]": "Буфер обмена",
        "Name[sk]": "Schránka",
        "Name[sl]": "Odložišče",
        "Name[sr@ijekavian]": "клипборд",
        "Name[sr@ijekavianlatin]": "klipbord",
        "Name[sr@latin]": "klipbord",
        "Name[sr]": "клипборд",
        "Name[sv]": "Klippbord",
        "Name[ta]": "பிடிப்புப்பலகை",
        "Name[tg]": "Ҳофизаи муваққатӣ",
        "Name[tr]": "Pano",
        "Name[uk]": "Буфер обміну",
        "Name[vi]": "Bảng nháp",
        "Name[x-test]": "xxClipboardxx",
        "Name[zh_CN]": "剪贴板",
        "Name[zh_TW]": "剪貼簿",
        "Version": "0.1",
        "Website": "https://www.kde.org/plasma-desktop"
    }
}
